<?xml version="1.0" encoding="utf-8"?>
<!-- Generator: Adobe Illustrator 21.1.0, SVG Export Plug-In . SVG Version: 6.00 Build 0)  -->
<svg version="1.1" id="Layer_1" xmlns="http://www.w3.org/2000/svg" xmlns:xlink="http://www.w3.org/1999/xlink" x="0px" y="0px"
	 viewBox="0 0 39 37.8" style="enable-background:new 0 0 39 37.8;" xml:space="preserve">
<style type="text/css">
	.st0{fill:none;}
	.st1{fill:#006DFF;}
</style>
<title>icono-08-01</title>
<g>
	<rect x="16.2" y="24.6" class="st0" width="0.6" height="0.4"/>
	<rect x="16.3" y="31" class="st0" width="0.6" height="0.2"/>
	<rect x="11.4" y="30.9" class="st0" width="0.6" height="0.2"/>
	<rect x="11.4" y="24.6" class="st0" width="0.5" height="0.4"/>
	<rect x="6.7" y="16.7" class="st0" width="10.1" height="1.9"/>
	<path class="st0" d="M4.1,13.8c-0.1,0-0.2,0-0.2,0c0,0,0,0.1,0,0.2v20.4c0,0,0,0.1,0,0.1c0,0,0.1,0,0.1,0h15.4c0.1,0,0.1,0,0.1,0
		c0,0,0-0.1,0-0.1V13.9c0-0.1,0-0.1,0-0.1c0,0-0.1,0-0.1,0H4.1z M9.2,32.1c0,0.6-0.4,1-1.1,1c-0.4,0.1-0.8,0.1-1.3,0.1H5.6
		c-0.7,0-1.1-0.4-1.1-1.1v-2.2c0-0.7,0.4-1.1,1.1-1.1h2.5c0.6,0,1.1,0.4,1.1,1V32.1z M9.2,25.9c0,0.7-0.4,1.1-1.1,1.1H5.6
		c-0.7,0-1.1-0.4-1.1-1.1v-2.2c0-0.7,0.4-1.1,1.1-1.1h2.5c0.7,0,1.1,0.4,1.1,1.1V25.9z M14.1,32.2c0,0.6-0.4,1-1,1h-2.6
		c-0.6,0-1.1-0.4-1.1-1v-2.3c0-0.6,0.4-1,1.1-1h2.6c0.6,0,1,0.4,1,1V32.2z M9.5,25.8v-2.1c0-0.7,0.3-1,1-1.2l2.5,0
		c0.7,0,1.1,0.4,1.1,1.1v2.1c0,0.7-0.3,1-1,1.1c-0.2,0.1-0.5,0.1-0.7,0.1c-0.1,0-0.2,0-0.3,0c-0.1,0-0.2,0-0.3,0h-1.2
		C9.8,26.9,9.5,26.5,9.5,25.8z M18.9,32.1c0,0.7-0.4,1.1-1.1,1.1h-2.5c-0.7,0-1.1-0.4-1.1-1.1v-2.2c0-0.7,0.4-1.1,1.1-1.1h2.5
		c0.7,0,1.1,0.4,1.1,1.1V32.1z M14.2,25.7v-2c0-0.8,0.4-1.2,1.2-1.2h2.3c0.8,0,1.2,0.4,1.2,1.2v2c0,0.7-0.3,1-1,1.1
		c-0.2,0.1-0.5,0.1-0.7,0.1c-0.1,0-0.2,0-0.3,0c-0.1,0-0.2,0-0.3,0h-1.2C14.6,26.9,14.2,26.5,14.2,25.7z M18.9,19.3
		c0,0.9-0.4,1.3-1.3,1.3H5.8c-0.9,0-1.3-0.4-1.3-1.4v-3.6c0-0.9,0.4-1.3,1.3-1.3c1.9,0.1,3.9,0.1,5.9,0.1h5.9c0.9,0,1.3,0.4,1.3,1.3
		V19.3z"/>
	<rect x="6.6" y="30.9" class="st0" width="0.6" height="0.2"/>
	<rect x="6.6" y="24.6" class="st0" width="0.6" height="0.4"/>
	<path class="st1" d="M36.4,7.2C35,4.1,32.5,2,28.9,1c-0.3-0.1-0.6-0.1-1-0.2c-0.2,0-0.4-0.1-0.6-0.1V0.6h-2.1L25,0.7l0,0
		c-1.7,0.1-3,0.5-4.1,1.1c-3.3,1.8-5.3,4.5-6,8.1c-0.1,0.7,0.2,1.3,0.9,1.4c0.3,0.1,0.7,0,1-0.2c0.2-0.2,0.4-0.4,0.5-0.7
		c0.1-0.1,0.1-0.3,0.1-0.4c0-0.1,0-0.2,0.1-0.3c1.2-3.8,3.7-6,7.4-6.5c2.8-0.4,5.3,0.4,7.3,2.3c2.8,2.5,3.7,6.5,2.1,10.1
		c-1.3,3.2-4.9,5.5-8.5,5.3c-0.4,0-1-0.1-1.4-0.2c-0.3-0.1-0.7-0.1-1.1-0.2c-0.5,0-0.9,0.2-1.2,0.7l0,0.1c0,0.1-0.1,0.2-0.1,0.3
		c0-2.5,0-5,0.1-7.6c0-1.6-1-2.6-2.6-2.6H4.1c-0.3,0-0.7,0-0.9,0.1c-1.2,0.3-1.8,1.2-1.8,2.5v20.5c0,1.6,1,2.6,2.6,2.6h15.3
		c1.6,0,2.6-1,2.6-2.6V24.3c0-0.8,0-1.7,0-2.5c0,0.3,0.2,0.6,0.5,0.8L23,23c1,0.3,2.1,0.5,3.2,0.5c0.3,0,0.7,0,1,0
		c3.1-0.3,5.6-1.6,7.3-3.7C37.9,15.8,38.4,11.6,36.4,7.2z M19.6,13.9v20.5c0,0.1,0,0.1,0,0.1c0,0-0.1,0-0.1,0H4c0,0-0.1,0-0.1,0
		c0,0,0-0.1,0-0.1V14c0-0.1,0-0.2,0-0.2c0.1,0,0.1,0,0.2,0h15.3c0.1,0,0.1,0,0.1,0C19.6,13.8,19.6,13.9,19.6,13.9z"/>
	<path class="st1" d="M26.5,15.2c-0.5,0.2-0.9,0.2-1.2,0.1c-0.6-0.2-1.3-0.5-2-0.8l-0.4-0.2l-0.1,0.4c-0.1,0.3-0.3,0.6-0.3,0.7
		l-0.1,0.1c-0.2,0.6-0.4,1-0.2,1.3c0.2,0.4,0.5,0.5,1.1,0.7c0.3,0.1,0.6,0.2,0.9,0.3c0.1,0,0.3,0.1,0.4,0.1v1.8h2.8v-1.7
		c0-0.1,0-0.2,0.1-0.2c0.2,0,0.4-0.1,0.5-0.2l0.1-0.1c1-0.5,1.7-1.5,1.9-2.6c0.2-1.1-0.1-2.2-0.8-3c-0.5-0.8-1.4-1.2-2.2-1.5
		c-0.5-0.2-1-0.4-1.4-0.7c-0.2-0.1-0.3-0.4-0.2-0.6c0-0.2,0.1-0.3,0.5-0.4c0.6-0.2,1.1,0,1.7,0.2c0.3,0.1,0.6,0.3,0.9,0.5l0.4,0.3
		l1.1-2.9l-2.5-0.9V4.1H25v1.9c-0.1,0-0.2,0.1-0.3,0.1c-1.3,0.6-2.1,1.5-2.3,2.8c-0.2,1.4,0.2,2.5,1.4,3.3c0.4,0.3,0.8,0.5,1.2,0.7
		c0.3,0.1,0.5,0.3,0.8,0.4c0.1,0.1,0.3,0.2,0.4,0.2c0.2,0.1,0.4,0.2,0.6,0.3c0.2,0.2,0.3,0.4,0.3,0.6C27,14.8,26.8,15,26.5,15.2z"/>
	<path class="st1" d="M17.6,14.4h-5.9c-2,0-4,0-5.9-0.1c-0.9,0-1.3,0.4-1.3,1.3v3.6c0,1,0.4,1.4,1.3,1.4h11.8c0.9,0,1.3-0.4,1.3-1.3
		v-3.6C18.9,14.8,18.5,14.4,17.6,14.4z M16.8,16.7v1.9H6.7v-1.9H16.8z"/>
	<path class="st1" d="M11.7,26.9c0.1,0,0.2,0,0.3,0c0.1,0,0.2,0,0.3,0c0.2,0,0.4,0,0.7-0.1c0.6,0,1-0.4,1-1.1v-2.1
		c0-0.7-0.4-1.1-1.1-1.1l-2.5,0c-0.7,0.1-1,0.5-1,1.2v2.1c0,0.7,0.4,1.1,1.1,1.1H11.7z M11.4,24.9v-0.4H12v0.4H11.4z"/>
	<path class="st1" d="M8.1,22.6H5.6c-0.7,0-1.1,0.4-1.1,1.1v2.2c0,0.7,0.4,1.1,1.1,1.1h2.5c0.7,0,1.1-0.4,1.1-1.1v-2.2
		C9.2,23,8.8,22.6,8.1,22.6z M7.3,24.6v0.4H6.6v-0.4H7.3z"/>
	<path class="st1" d="M13.1,28.9h-2.6c-0.6,0-1.1,0.4-1.1,1v2.3c0,0.6,0.4,1,1.1,1h2.6c0.6,0,1-0.4,1-1v-2.3
		C14.1,29.3,13.8,28.9,13.1,28.9z M12.1,30.9v0.2h-0.6v-0.2H12.1z"/>
	<path class="st1" d="M8.1,28.8H5.6c-0.7,0-1.1,0.4-1.1,1.1v2.2c0,0.7,0.4,1.1,1.1,1.1h1.2c0.5,0,0.9,0,1.3-0.1c0.6,0,1.1-0.4,1.1-1
		v-2.3C9.2,29.2,8.8,28.8,8.1,28.8z M7.3,30.9v0.2H6.6v-0.2H7.3z"/>
	<path class="st1" d="M15.3,26.9h1.2c0.1,0,0.2,0,0.3,0c0.1,0,0.2,0,0.3,0c0.2,0,0.4,0,0.7-0.1c0.6,0,1-0.4,1-1.1v-2
		c0-0.8-0.4-1.2-1.2-1.2h-2.3c-0.8,0-1.2,0.4-1.2,1.2v2C14.2,26.5,14.6,26.9,15.3,26.9z M16.2,24.9v-0.4h0.6v0.4H16.2z"/>
	<path class="st1" d="M17.8,28.8h-2.5c-0.7,0-1.1,0.4-1.1,1.1v2.2c0,0.7,0.4,1.1,1.1,1.1h2.5c0.7,0,1.1-0.4,1.1-1.1v-2.2
		C18.9,29.2,18.5,28.8,17.8,28.8z M16.9,31v0.2h-0.6V31H16.9z"/>
</g>
</svg>
